<?xml version="1.0" encoding="utf-8"?>
<!-- Generator: Adobe Illustrator 21.1.0, SVG Export Plug-In . SVG Version: 6.00 Build 0)  -->
<svg version="1.1" id="Layer_1" xmlns="http://www.w3.org/2000/svg" xmlns:xlink="http://www.w3.org/1999/xlink" x="0px" y="0px"
	 viewBox="0 0 227.7 260" style="enable-background:new 0 0 227.7 260;" xml:space="preserve">
<style type="text/css">
	.st0{opacity:0.15;}
	.st1{fill:#6B99D1;}
	.st2{fill:#2D2979;}
	.st3{fill:#FFC3C3;}
	.st4{fill:#231F6C;}
	.st5{fill:#543354;}
	.st6{fill:#FFA8A7;}
	.st7{fill:#F5FBFB;}
	.st8{fill:#A8DFFF;}
	.st9{fill:#AACAF9;}
	.st10{fill:#38A0DD;}
	.st11{fill:#E3ECFA;}
	.st12{fill:#D4E5FF;}
	.st13{fill:#031F60;}
	.st14{fill:#1E3779;}
	.st15{fill:#004787;}
	.st16{fill:#002F5E;}
	.st17{fill:#CBD9EE;}
	.st18{opacity:0.4;}
	.st19{opacity:0.4;fill:#FAFDFF;enable-background:new    ;}
	.st20{fill:#7AA3E5;}
	.st21{opacity:0.6;}
	.st22{opacity:0.6;fill:#9DE5DA;enable-background:new    ;}
	.st23{opacity:0.6;fill:none;stroke:#E9FFFB;stroke-linecap:round;stroke-miterlimit:10;enable-background:new    ;}
	.st24{opacity:0.9;fill:#40E0C7;enable-background:new    ;}
	.st25{fill:none;stroke:#E9FFFB;stroke-linecap:round;stroke-miterlimit:10;}
</style>
<g class="st0">
	<path class="st1" d="M226,169.6l-69.2-39.9c-1.3-0.6-2.7-1-4.1-1c-1.4,0-2.9,0.3-4.1,1L1.7,214.3c-2.3,1.3-2.3,3.5,0,4.8L71,259
		c1.3,0.6,2.7,1,4.1,1s2.9-0.3,4.1-1L226,174.3C228.3,173,228.3,170.9,226,169.6z"/>
</g>
<g class="st0">
	<path class="st1" d="M9.3,166.9l13.2-7.6c9-5.2,21.4-6.4,27.7-2.8c6.3,3.6,4.1,10.8-4.8,16l-13.2,7.6c-9,5.2-21.4,6.4-27.7,2.8
		C-1.8,179.3,0.3,172.1,9.3,166.9z"/>
</g>
<path class="st2" d="M25.2,155.5c-0.3,1.6-0.1,3.2,0.7,4.6c0.6,2.2,0.8,4.4,0.7,6.6c0.3,0.2,0.6,0.3,0.9,0.3c0.3,0,0.6-0.1,0.9-0.4
	c0,0-0.2-6.3,1.5-5.8L25.2,155.5z"/>
<path class="st3" d="M39.4,165.3c-1.7-2.5-4.5-10.5-5-12.4c-0.5-1.3-0.8-2.6-0.8-3.9c0.1-2.8,0.9-10.5,0.9-10.5h-6.7l0.1,10.1
	c0.1,1.1-0.1,2.1-0.5,3.1c-0.3,0.9-1.2,3.1-1.5,3.9c-0.3,0.7-0.4,1.4-0.2,2.2c0.2,0.7,0.6,1.4,1.3,1.8c1.6,1.1,3.1,2.4,4.4,3.9
	c1.2,1.5,1.2,3.6,3.1,5.4c1.9,1.8,5.8,0.4,6.5-0.2C41.9,167.7,41.5,166.9,39.4,165.3z"/>
<path class="st4" d="M39.1,167.3c-4.2,1-5.1,0.5-6.3-4.3c-0.9-3.7-1.8-6.2-3.4-7.7c-1.9-1.7-2.1-2.6-2.1-3.8c-0.4,0-0.6,0.3-0.9,1.2
	c-0.6,2.1-1.4,2.2-1.4,3.7c0,0.7,0.2,1.4,0.6,2c0.4,0.6,0.9,1.1,1.5,1.5c1.5,0.8,2.6,2,3.2,3.5c1,2.1,0.8,4.4,1.5,6.4
	c2.9,2.3,6.1,3.8,10.8,1.5c0.9-2.4,1.7-3.5-3.3-6.2C40.3,166.3,40.7,166.9,39.1,167.3z"/>
<path class="st4" d="M13.8,158.2c-0.8,1.6-1.2,3.5-1,5.3c0.2,2.9,0.9,2.3,0.7,6.2c-0.1,2.4-1.3,5.4,0,7.3c2.2,2.2,8,1.9,9.2,0.7
	c0.4-0.9,0.5-2,0.4-3c-0.1-0.8-1.5-1.7-1.7-2.5s-0.4-1.4-0.6-2.5c-0.7-3.5-1.5-11.6-1.5-11.6L13.8,158.2z"/>
<path class="st3" d="M18.3,173.6c-0.9,0-1.8-0.1-2.6-0.4c-0.2-0.2-0.4-0.4-0.6-0.7c-0.1-0.3-0.2-0.6-0.2-0.9
	c-0.3-1.8,0.3-4.1-0.5-6.7c-0.8-2.2-1-4.5-0.6-6.8c0.2-2.3,0.2-4.6,0-6.9l5.6-0.1c0,0-0.2,4.6-0.2,7c0.1,4.1,0.4,8.3,1,12.4
	c0.2,1.2,0.5,1.7,0.3,2.2C20.6,172.7,20.2,173.5,18.3,173.6z"/>
<path class="st5" d="M27.5,1.5c-1.3-2-10.8-3.4-14.1,4.8c-1.2,3.1-1,11-2,15.9S8,30,7.2,34.1c-0.9,4.1,0.5,10.8,10.3,12
	c9.7,1.1,17.2-2.2,19.5-5.3c2.3-3.1,2.3-9.7,0-13.2c-2.3-3.5-4.2-6.4-4.2-11L27.5,1.5z"/>
<path class="st3" d="M75.8,55.8c-1.4,0.3-2.8,0.6-4.2,1.1c-1.3,0.6-2.6,1-4,1.2c-1.5,0.2-6.1-1.3-10.1-3.3
	c-4.4-2.4-8.4-5.5-11.7-9.3c-3.8-4.7-7.1-9.8-10-15.2c-1.7-3.3-3.8-3.8-5.9-3.6c-2.4,0.3-3.4,1.7-1,6.1c3.4,6.2,7.5,12,12.3,17.3
	c3.5,3.7,7.7,6.8,12.2,9.1c4,2,8.2,3.6,12.6,4.6c1.3,0.3,2.1,0.9,4.5,1.7c2.3,0.9,4.8,1.3,7.3,1c2.1-0.4,2.8-0.8,2.9-1.3
	c0.1-0.4-0.3-0.9-1.3-0.8c-1.5,0.2-3.1,0.1-4.5-0.2c0,0,2.1,0,3.4-0.1c1.1-0.1,2.2-0.4,3.3-0.8c1-0.4,1.4-2,0.4-1.9
	c-1,0-1.7,0.3-3.6,0.5c-1,0.1-2,0.1-3-0.1c1.2-0.2,2.5-0.4,3.7-0.8c1-0.3,1.9-0.8,2.6-1.5c0.4-0.4,0.3-1.3-0.9-1.2
	c-1.5,0.5-3,0.8-4.5,0.9c-1.5,0-2.6-0.2-2.4-0.4c0.2-0.2,1.1-0.2,2.3-0.8c1.2-0.6,1.9-1.8,1.5-2.4C77.2,55,77.1,55.4,75.8,55.8z"/>
<path class="st5" d="M27.4,1.6c0,0,3.4-2.9,7.6,1.3c2.6,2.7,2.4,7.9,1.9,10.2c-0.5,2.2-2.7,5-4.5,5.2C30.5,18.4,27.4,1.6,27.4,1.6z"
	/>
<path class="st6" d="M10.1,73.3c-2,8.6,0.7,22.2,1.2,29.2c0.4,7,1.1,15.2,1.1,15.2c-1.2,4.3-1.9,8.7-2,13.2
	c0.1,6.1,3.8,23.5,3.8,23.5c0.8,0.5,1.7,0.8,2.6,0.8s1.8-0.3,2.6-0.8c0,0,0.9-15.1,1.7-22.1c0.9-7.3,1.1-12.6,1.9-16.9
	c0.9-5.3,3-33.7,3-33.7l0.2,4.3l2.6,28c-1,2.3-1.7,4.8-1.8,7.3c0,4.5,1,25.4,1,25.4c0.8,0.6,1.8,0.8,2.8,0.8c1,0,2-0.3,2.8-0.8
	c0,0,4.4-28.7,5-32.1c0.6-3.1,1.9-35.4-0.7-42.9L10.1,73.3z"/>
<path class="st3" d="M18.4,19.9c0,0,0.5,8.1,0.3,8.7c-0.1,0.6-3.1,1.2-4,1.9c-0.9,0.7,4.4,8.9,7.1,10.1c2.7,1.2,11-1.8,11.5-6
	c0.5-3.8-2.4-6.7-3.5-7.7c-0.8,0-1.5,0-2.3,0l-0.2-3.9C23.6,21.6,18.4,19.9,18.4,19.9z"/>
<path class="st7" d="M17.2,29.4c-2.3,0.3-4.9,1.5-5.2,2.8c-0.9,4.5-0.7,9.1,0.7,13.5c1.5,3.8,3.3,7.4,5.4,11
	c2.8,0.7,5.7,0.9,8.5,0.5c2.8-0.4,5.6-1.4,8-2.8c0.4-2.4,0.7-4.8,0.8-7.2c7.3-6.4,1.1-14.2-5.1-20.3c-0.7-0.1-1.5-0.1-2.2,0
	c0,0,3.7,9.4,1.7,10.2C26.9,38.2,19.9,30.8,17.2,29.4z"/>
<path class="st3" d="M27.4,26l-0.2-3.2L24.7,22l-6.3-2.1c0,0,0,1.5,0.1,2.5c0,0,0.3,2.8,4.8,4.9C24.1,27.7,27.2,28,27.4,26z"/>
<path class="st3" d="M33.5,9.9c-0.7-5.2-4.6-9.1-9.9-8.8c-2.2,0.1-4.2,0.9-5.9,2.3c-1.7,1.4-2.9,3.2-3.5,5.3
	c-0.6,2.1-0.5,4.3,0.3,6.3c0.8,2,2.1,3.8,3.9,5c0.2,0.8,0.5,1.5,0.8,2.3c1.9,2.2,6.9,3.6,8.6,3.6c1.7,0,2.7-1.3,4-3.6
	C34.6,17.6,33.9,12.4,33.5,9.9z"/>
<path class="st5" d="M33.1,6.6c-1-2.1-2.6-3.7-4.6-4.7c-2-1-4.4-1.3-6.6-0.7C20,1.5,18.4,2.4,17,3.7c-1.4,1.3-2.3,2.9-2.8,4.7
	c-0.6,2.1-0.6,4.4,0.2,6.4c0.7,2.1,2.1,3.8,4,5.1c-0.1-0.4-2.8-4.4,0-5.3c0,0.4,0.1,1.8,0.2,2.7c0,0,1.4,0.1,1.3-1.5
	c0-0.4-0.1-1.2-0.1-1.5c-0.1-1.1,0.1-2.2,0.7-3.1c0.3-0.5,0.5-1,0.6-1.5c0.2-0.8,0.5-1.5,1-2.1c0.5-0.6,1.1-1.1,1.9-1.4
	c1.4-0.4,3.2-0.3,5.3,1.9C31.4,4.9,32.4,5.9,33.1,6.6z"/>
<path class="st3" d="M18.4,19.9c0,0-0.2,0.5-1.3,0.6c-1.9,0.1-4.1-3.4-2.6-5.8c0.2-0.3,0.5-0.5,0.8-0.7c0.3-0.2,0.7-0.3,1-0.3
	c0.4,0,0.7,0.1,1.1,0.2c0.3,0.1,0.6,0.4,0.9,0.6L18.4,19.9z"/>
<path class="st7" d="M17.5,55.5c0.6,1.1,0.7,2.6-1.2,5.2c-1.8,2.7-5.6,8.1-6.2,12.6c1.2,1.6,2.7,2.9,4.4,3.9c1.7,1,3.6,1.6,5.6,1.9
	c9.2,1.4,16-2.6,18.2-5c-0.3-3.7-0.9-7.3-1.8-10.8c-0.8-2.9-1.5-5.9-1.9-9C34.3,51,17.5,55.5,17.5,55.5z"/>
<path class="st8" d="M17.1,58.9c-1.2,2.1-2.5,4.1-3.9,6c-1.9,2.6-5.6,8.4-4.6,18.4c0.6,6.5,3.8,34.5,3.8,34.5
	c-1.1,3.5-1.8,7.2-2.2,10.8c-0.5,6,3.7,26,3.7,26c0.9,0.6,1.9,1,3,0.9c0.5,0,1,0,1.5-0.2c0.5-0.2,0.9-0.5,1.2-0.9l1.1-17
	c0.4-5.8,1.4-15,1.7-17.3s1-6.3,1.4-10.8c0.3-4.5,2-27.4,2-27.4l0.2,4.3c0,0,0.2,7,1.2,15.6c1,8.6,1.4,12.4,1.4,12.4
	c-1,1.7-1.6,3.6-2,5.6c-0.2,2.4,1.1,27.1,1.1,27.1c0.4,0.5,0.8,0.8,1.4,1.1s1.1,0.4,1.7,0.4c2.3,0.2,2.9-0.4,2.9-0.4
	s3.6-25.8,4.1-28.4c0.7-4.1,1.2-8.2,1.3-12.3c0.5-10.9,0.3-21.9-0.5-32.8c-0.8-6.5-3.3-16.1-3.3-16.1c-2.3,1.1-4.8,1.7-7.3,1.8
	C24.4,59.9,20.7,59.6,17.1,58.9z"/>
<path class="st9" d="M35.4,74.1c-0.9,1.7-2.1,3.3-3.5,4.5c-1.8,1.5-3.8,2.6-6.1,3.2l0.2,4.3c0,0,0.2,7,1.2,15.6
	c0.6,4.6,0.9,8,1.1,10l-0.3-28.1c1.9-0.9,3.6-2.2,4.8-3.8C34.2,78.1,35,76.1,35.4,74.1z"/>
<path class="st10" d="M17.9,56.5c3.3,1,6.7,1.4,10.1,1.4c4.7-0.4,6.2-1.7,6.8-2.6c0.4,0.9,0.6,1.9,0.6,2.8c-2,2.4-4.6,2.9-8.4,2.9
	c-3.4,0-6.7-0.8-9.8-2.2C17.4,58.1,17.7,57.3,17.9,56.5z"/>
<path class="st3" d="M19.4,85.9c-1.1-1-2.2-1.9-3.3-2.8c-1.3-0.7-2.4-1.5-3.4-2.6c-1.1-1.1-2.5-5.7-3.3-10.1c-0.6-5-0.4-10,0.7-14.9
	c1.6-5.8,3.8-11.5,6.4-17c1.7-3.3,1.1-5.5-0.6-6.8c-1.7-1.3-3.8-0.8-5.5,2.8c-3,6.4-5.3,13.2-6.8,20.1c-0.9,5-1,10.2-0.2,15.2
	c0.7,4.4,2,8.7,3.7,12.8c0.5,1.2,0.6,2.2,1.2,4.6c0.6,2.4,1.8,4.7,3.5,6.5c1.5,1.5,2.3,1.8,2.7,1.5c0.4-0.2,0.5-0.8-0.1-1.5
	c-1-1.1-1.9-2.4-2.5-3.8c0,0,1.3,1.7,2.1,2.7c0.7,0.8,1.6,1.6,2.5,2.2c0.9,0.6,2.4,0,1.8-0.8c-0.6-0.8-1.3-1.2-2.5-2.6
	c-0.7-0.7-1.2-1.6-1.7-2.5c0.9,0.9,1.8,1.7,2.8,2.5c0.8,0.7,1.7,1.1,2.7,1.2c0.5,0,1.3-0.6,0.4-1.4c-1.2-0.9-2.3-1.9-3.3-3.1
	c-0.9-1.2-1.4-2.2-1.1-2.2c0.3,0,0.8,0.8,2,1.4c1.2,0.6,2.6,0.4,2.9-0.2C20.9,86.4,20.5,86.6,19.4,85.9z"/>
<path class="st11" d="M227.6,161.9v-9.3l-10.5,4.5l-63.7-36.8c-1.3-0.6-2.7-1-4.1-1c-1.4,0-2.9,0.3-4.1,1L24.2,190L0,197.3v9.3
	c0.1,0.5,0.2,1,0.5,1.4c0.3,0.4,0.7,0.7,1.2,0.9L71,248.9c1.3,0.7,2.7,1,4.1,1c1.4,0,2.9-0.3,4.1-1L226,164.2c0.5-0.2,0.9-0.5,1.1-1
	C227.4,162.9,227.6,162.4,227.6,161.9z"/>
<path class="st12" d="M0,197.3v9.3c0.1,0.5,0.2,1,0.5,1.4c0.3,0.4,0.7,0.7,1.2,0.9L71,248.9c1.3,0.7,2.7,1,4.1,1v-42.5l-40-23.6
	l-10.8,6.2L0,197.3z"/>
<path class="st13" d="M217.6,152.8l-17-9.8c-0.9-0.4-1.8-0.7-2.8-0.7c-1,0-1.9,0.2-2.8,0.7l-0.9,0.5c-0.9,0.4-1.8,0.7-2.8,0.7
	c-1,0-1.9-0.2-2.8-0.7l-20.3-11.8c-0.3-0.1-0.6-0.3-0.8-0.6c-0.2-0.3-0.3-0.6-0.3-1c0-0.4,0.1-0.7,0.3-1c0.2-0.3,0.5-0.5,0.8-0.6
	l0.9-0.5c0.3-0.1,0.6-0.3,0.8-0.6c0.2-0.3,0.3-0.6,0.3-1c0-0.4-0.1-0.7-0.3-1c-0.2-0.3-0.5-0.5-0.8-0.6l-17.2-9.9
	c-0.9-0.4-1.8-0.7-2.8-0.7c-1,0-1.9,0.2-2.8,0.7L10,193.8c-0.3,0.1-0.6,0.3-0.8,0.6c-0.2,0.3-0.3,0.6-0.3,0.9s0.1,0.7,0.3,0.9
	c0.2,0.3,0.4,0.5,0.8,0.6l65.5,37.8c0.9,0.4,1.8,0.7,2.8,0.7s1.9-0.2,2.8-0.7L217.6,156c0.3-0.1,0.6-0.3,0.8-0.6
	c0.2-0.3,0.3-0.6,0.3-1s-0.1-0.7-0.3-1C218.2,153.1,217.9,152.9,217.6,152.8z"/>
<path class="st14" d="M197.8,141.4l22.5,12.9l-3.1,5.7l-19.4-11.2V141.4z"/>
<path class="st14" d="M149.3,120.9v-7.5l22.7,13.1l-6.5,3.7L149.3,120.9z"/>
<path class="st15" d="M81,234.8l136-78.5l-16.4-9.5c-0.9-0.4-1.8-0.7-2.8-0.7c-1,0-1.9,0.2-2.8,0.7l-0.9,0.5
	c-0.9,0.4-1.8,0.7-2.8,0.7c-1,0-1.9-0.2-2.8-0.7l-20.3-11.7c-0.3-0.1-0.6-0.3-0.8-0.6c-0.2-0.3-0.3-0.6-0.3-1s0.1-0.7,0.3-1
	c0.2-0.3,0.5-0.5,0.8-0.6l0.6-0.3l-0.6-0.3c-0.3-0.1-0.6-0.3-0.8-0.6c-0.2-0.3-0.3-0.6-0.3-1s0.1-0.7,0.3-1c0.2-0.3,0.5-0.5,0.8-0.6
	l0.4-0.2l-16.6-9.6c-0.9-0.4-1.8-0.6-2.8-0.6c-1,0-1.9,0.2-2.8,0.6l-136,78.5l65,37.5c0.8,0.4,1.8,0.6,2.7,0.6
	C79.3,235.4,80.2,235.2,81,234.8z"/>
<path class="st16" d="M200.6,146.8c-0.9-0.4-1.8-0.7-2.8-0.7c-1,0-1.9,0.2-2.8,0.7l-0.9,0.5c-0.9,0.4-1.8,0.7-2.8,0.7
	c-1,0-1.9-0.2-2.8-0.7l-20.3-11.7c-0.3-0.1-0.6-0.3-0.8-0.6c-0.2-0.3-0.3-0.6-0.3-1s0.1-0.7,0.3-1c0.2-0.3,0.5-0.5,0.8-0.6l0.6-0.3
	l-0.6-0.3c-0.3-0.1-0.6-0.3-0.8-0.6c-0.2-0.3-0.3-0.6-0.3-1s0.1-0.7,0.3-1c0.2-0.3,0.5-0.5,0.8-0.6l0.4-0.2l-16.6-9.6
	c-0.8-0.4-1.8-0.7-2.8-0.7c0,0,9.1,22.9,1.3,46.9c-7.2,22.4-49.3,57.5-66.3,67.8L217,156.3L200.6,146.8z"/>
<path class="st14" d="M167.1,130.2v3.8c0,0.3,0.2,0.7,0.4,0.9c0.2,0.3,0.5,0.5,0.8,0.6l20.3,11.7c0.9,0.5,1.9,0.7,2.9,0.7v-4.8
	L167.1,130.2z"/>
<path class="st17" d="M226,150.2l-69.2-39.9c-1.3-0.6-2.7-1-4.1-1c-1.4,0-2.9,0.3-4.1,1L1.7,194.9c-2.3,1.3-2.3,3.4,0,4.8L71,239.6
	c1.3,0.6,2.7,1,4.1,1s2.9-0.3,4.1-1L226,154.9C228.3,153.6,228.3,151.5,226,150.2z M217.6,156L81,234.8c-0.9,0.4-1.8,0.7-2.8,0.7
	s-1.9-0.2-2.8-0.7L10,197c-0.3-0.1-0.6-0.3-0.8-0.6c-0.2-0.3-0.3-0.6-0.3-0.9s0.1-0.7,0.3-0.9c0.2-0.3,0.4-0.5,0.8-0.6L146.5,115
	c0.9-0.4,1.8-0.7,2.8-0.7c1,0,1.9,0.2,2.8,0.7l17.2,9.9c0.3,0.1,0.6,0.3,0.8,0.6c0.2,0.3,0.3,0.6,0.3,1c0,0.3-0.1,0.7-0.3,1
	c-0.2,0.3-0.5,0.5-0.8,0.6l-0.9,0.5c-0.3,0.1-0.6,0.3-0.8,0.6c-0.2,0.3-0.3,0.6-0.3,1s0.1,0.7,0.3,1c0.2,0.3,0.5,0.5,0.8,0.6
	l20.3,11.7c0.9,0.4,1.8,0.7,2.8,0.7c1,0,1.9-0.2,2.8-0.7l0.9-0.5c0.9-0.4,1.8-0.7,2.8-0.7c1,0,1.9,0.2,2.8,0.7l17,9.8
	c0.3,0.1,0.6,0.3,0.8,0.6s0.3,0.6,0.3,1c0,0.4-0.1,0.7-0.3,1C218.2,155.6,217.9,155.8,217.6,156z"/>
<g class="st18">
	<path class="st19" d="M57.8,166.2l11.8-6.8h-6.3l-11.8,6.8H57.8z"/>
	<path class="st19" d="M102.3,140.5l23.6-13.6h-6.3L96,140.5H102.3z"/>
	<path class="st19" d="M150.5,114.5c0.5,0.1,1.1,0.3,1.5,0.5l7.4,4.4h12.9l-8.3-4.9H150.5z"/>
	<path class="st19" d="M132.7,119.4h6.3l7.5-4.3c0.5-0.3,1-0.4,1.5-0.5h-7L132.7,119.4z"/>
	<path class="st19" d="M170.3,126.9c-0.2,0.5-0.6,1-1.1,1.2l-0.9,0.5c-0.3,0.1-0.6,0.3-0.8,0.6c-0.2,0.3-0.3,0.6-0.3,1
		s0.1,0.7,0.3,1c0.2,0.3,0.5,0.5,0.8,0.6l15.1,8.7h25.8l-23.7-13.6H170.3z"/>
	<path class="st19" d="M23.5,186l23.6-13.6h-6.3L17.1,186H23.5z"/>
	<path class="st19" d="M74.4,234.1l-23.7-13.6h-13l23.7,13.6H74.4z"/>
	<path class="st19" d="M211.6,159.4l-11.8,6.8h6.7l11.8-6.8H211.6z"/>
	<path class="st19" d="M189.1,172.4L165.5,186h6.7l23.7-13.6H189.1z"/>
	<path class="st19" d="M40.1,214.3l-11.8-6.8H15.3l11.8,6.8H40.1z"/>
	<path class="st19" d="M128.3,207.5l-11.8,6.8h6.6l11.8-6.8H128.3z"/>
	<path class="st19" d="M105.8,220.5l-23.7,13.6h6.6l23.7-13.6H105.8z"/>
</g>
<path class="st13" d="M178,130l9.9,5.7c0.8,0.5,1,1.2,0.3,1.5c-0.4,0.2-0.9,0.3-1.4,0.2c-0.5,0-0.9-0.2-1.3-0.4l-9.9-5.7
	c-0.8-0.5-1-1.2-0.3-1.5c0.4-0.2,0.9-0.3,1.4-0.2C177.1,129.6,177.6,129.7,178,130z"/>
<path class="st20" d="M31.2,221.7c0-1.1,2.2-0.6,5,1c2.8,1.6,5,3.7,5,4.8v1.9l-10-5.8V221.7z"/>
<path class="st20" d="M44.3,230.6c0,0.2,0.1,0.4,0.2,0.6c0.1,0.2,0.3,0.4,0.5,0.5c0.4,0.2,0.6,0,0.6-0.4c0-0.2-0.1-0.4-0.2-0.6
	c-0.1-0.2-0.3-0.4-0.4-0.5C44.6,230,44.3,230.2,44.3,230.6z"/>
<path class="st20" d="M47.4,232.4c0,0.2,0.1,0.4,0.2,0.6c0.1,0.2,0.3,0.4,0.4,0.5c0.4,0.2,0.6,0,0.6-0.4c0-0.2-0.1-0.4-0.2-0.6
	c-0.1-0.2-0.3-0.3-0.4-0.5C47.7,231.8,47.4,232,47.4,232.4z"/>
<path class="st20" d="M50.6,234.2c0,0.2,0.1,0.4,0.2,0.6c0.1,0.2,0.3,0.4,0.4,0.5c0.4,0.2,0.6,0,0.6-0.4c0-0.2-0.1-0.4-0.2-0.6
	c-0.1-0.2-0.3-0.4-0.4-0.5C50.9,233.6,50.6,233.8,50.6,234.2z"/>
<path class="st20" d="M53.7,236c0,0.2,0.1,0.4,0.2,0.6c0.1,0.2,0.3,0.3,0.4,0.5c0.4,0.2,0.6,0,0.6-0.4c0-0.2-0.1-0.4-0.2-0.6
	c-0.1-0.2-0.3-0.4-0.4-0.5C54,235.4,53.7,235.6,53.7,236z"/>
<path class="st20" d="M56.8,237.8c0,0.2,0.1,0.4,0.2,0.6c0.1,0.2,0.3,0.4,0.4,0.5c0.4,0.2,0.6,0,0.6-0.4c0-0.2-0.1-0.4-0.2-0.6
	c-0.1-0.2-0.3-0.4-0.5-0.5C57.1,237.2,56.8,237.4,56.8,237.8z"/>
<path class="st20" d="M60,239.6c0,0.2,0.1,0.4,0.2,0.6c0.1,0.2,0.3,0.4,0.4,0.5c0.3,0.2,0.6,0,0.6-0.4c0-0.2-0.1-0.4-0.2-0.6
	c-0.1-0.2-0.3-0.4-0.4-0.5C60.2,239,60,239.2,60,239.6z"/>
<path class="st20" d="M63.1,241.4c0,0.2,0.1,0.4,0.2,0.6c0.1,0.2,0.3,0.4,0.4,0.5c0.3,0.2,0.6,0,0.6-0.4c0-0.2-0.1-0.4-0.2-0.6
	c-0.1-0.2-0.3-0.4-0.4-0.5C63.4,240.9,63.1,241,63.1,241.4z"/>
<path class="st20" d="M44.2,227.3c0,0.2,0.1,0.4,0.2,0.6c0.1,0.2,0.3,0.4,0.4,0.5c0.3,0.2,0.6,0,0.6-0.4c0-0.2-0.1-0.4-0.2-0.6
	c-0.1-0.2-0.3-0.4-0.4-0.5C44.5,226.8,44.2,226.9,44.2,227.3z"/>
<path class="st20" d="M47.4,229.2c0,0.2,0.1,0.4,0.2,0.6c0.1,0.2,0.3,0.4,0.5,0.5c0.4,0.2,0.6,0,0.6-0.4c0-0.2-0.1-0.4-0.2-0.6
	c-0.1-0.2-0.3-0.4-0.4-0.5C47.6,228.6,47.4,228.7,47.4,229.2z"/>
<path class="st20" d="M50.5,230.9c0,0.2,0.1,0.4,0.2,0.6c0.1,0.2,0.3,0.4,0.4,0.5c0.4,0.2,0.6,0,0.6-0.4c0-0.2-0.1-0.4-0.2-0.6
	c-0.1-0.2-0.3-0.4-0.4-0.5C50.8,230.4,50.5,230.5,50.5,230.9z"/>
<path class="st20" d="M53.6,232.7c0,0.2,0.1,0.4,0.2,0.6c0.1,0.2,0.2,0.4,0.4,0.5c0.4,0.2,0.6,0,0.6-0.4c0-0.2-0.1-0.4-0.2-0.6
	c-0.1-0.2-0.3-0.4-0.4-0.5C53.9,232.2,53.6,232.3,53.6,232.7z"/>
<path class="st20" d="M56.8,234.5c0,0.2,0.1,0.4,0.2,0.6c0.1,0.2,0.3,0.4,0.4,0.5c0.4,0.2,0.6,0,0.6-0.4c0-0.2-0.1-0.4-0.2-0.6
	c-0.1-0.2-0.3-0.4-0.4-0.5C57,234,56.8,234.1,56.8,234.5z"/>
<path class="st20" d="M59.9,236.4c0,0.2,0.1,0.4,0.2,0.6c0.1,0.2,0.3,0.4,0.4,0.5c0.4,0.2,0.6,0,0.6-0.4c0-0.2-0.1-0.4-0.2-0.6
	c-0.1-0.2-0.3-0.3-0.4-0.5C60.2,235.8,59.9,235.9,59.9,236.4z"/>
<path class="st20" d="M63,238.2c0,0.2,0.1,0.4,0.2,0.6c0.1,0.2,0.3,0.4,0.4,0.5c0.4,0.2,0.6,0,0.6-0.4c0-0.2-0.1-0.4-0.2-0.6
	c-0.1-0.2-0.3-0.4-0.4-0.5C63.3,237.6,63,237.8,63,238.2z"/>
<path class="st20" d="M7.5,209.3c0,0.2,0.1,0.4,0.2,0.6c0.1,0.2,0.3,0.4,0.5,0.5c0.4,0.2,0.6,0,0.6-0.4c0-0.2-0.1-0.4-0.2-0.6
	c-0.1-0.2-0.3-0.4-0.4-0.5C7.7,208.8,7.5,208.9,7.5,209.3z"/>
<path class="st20" d="M10.6,211.1c0,0.2,0.1,0.4,0.2,0.6c0.1,0.2,0.3,0.4,0.4,0.5c0.4,0.2,0.6,0,0.6-0.4c0-0.2-0.1-0.4-0.2-0.6
	s-0.3-0.4-0.4-0.5C10.9,210.6,10.6,210.7,10.6,211.1z"/>
<path class="st20" d="M13.8,213c0,0.2,0.1,0.4,0.2,0.6c0.1,0.2,0.3,0.4,0.4,0.5c0.4,0.2,0.6,0,0.6-0.4c0-0.2-0.1-0.4-0.2-0.6
	c-0.1-0.2-0.3-0.4-0.4-0.5C14,212.4,13.8,212.6,13.8,213z"/>
<path class="st20" d="M16.9,214.8c0,0.2,0.1,0.4,0.2,0.6c0.1,0.2,0.3,0.3,0.4,0.5c0.4,0.2,0.6,0,0.6-0.4c0-0.2-0.1-0.4-0.2-0.6
	c-0.1-0.2-0.3-0.4-0.4-0.5C17.2,214.2,16.9,214.4,16.9,214.8z"/>
<path class="st20" d="M20,216.6c0,0.2,0.1,0.4,0.2,0.6c0.1,0.2,0.3,0.4,0.4,0.5c0.4,0.2,0.6,0,0.6-0.4c0-0.2-0.1-0.4-0.2-0.6
	c-0.1-0.2-0.3-0.3-0.4-0.5C20.3,216,20,216.2,20,216.6z"/>
<path class="st20" d="M23.2,218.4c0,0.2,0.1,0.4,0.2,0.6c0.1,0.2,0.3,0.4,0.4,0.5c0.4,0.2,0.6,0,0.6-0.4c0-0.2-0.1-0.4-0.2-0.6
	c-0.1-0.2-0.3-0.4-0.4-0.5C23.4,217.8,23.2,218,23.2,218.4z"/>
<path class="st20" d="M26.3,220.2c0,0.2,0.1,0.4,0.2,0.6c0.1,0.2,0.3,0.4,0.4,0.5c0.3,0.2,0.6,0,0.6-0.4c0-0.2-0.1-0.4-0.2-0.6
	c-0.1-0.2-0.3-0.4-0.4-0.5C26.6,219.6,26.3,219.8,26.3,220.2z"/>
<path class="st20" d="M7.4,206.1c0,0.2,0.1,0.4,0.2,0.6c0.1,0.2,0.3,0.4,0.4,0.5c0.3,0.2,0.6,0,0.6-0.4c0-0.2-0.1-0.4-0.2-0.6
	c-0.1-0.2-0.3-0.4-0.4-0.5C7.7,205.5,7.4,205.7,7.4,206.1z"/>
<path class="st20" d="M10.6,207.9c0,0.2,0.1,0.4,0.2,0.6c0.1,0.2,0.3,0.4,0.4,0.5c0.3,0.2,0.6,0,0.6-0.4c0-0.2-0.1-0.4-0.2-0.6
	c-0.1-0.2-0.3-0.4-0.4-0.5C10.8,207.3,10.6,207.5,10.6,207.9z"/>
<path class="st20" d="M13.7,209.7c0,0.2,0.1,0.4,0.2,0.6c0.1,0.2,0.3,0.4,0.4,0.5c0.3,0.2,0.6,0,0.6-0.4c0-0.2-0.1-0.4-0.2-0.6
	c-0.1-0.2-0.3-0.4-0.4-0.5C13.9,209.1,13.7,209.3,13.7,209.7z"/>
<path class="st20" d="M16.8,211.5c0,0.2,0.1,0.4,0.2,0.6c0.1,0.2,0.3,0.4,0.4,0.5c0.4,0.2,0.6,0,0.6-0.4c0-0.2-0.1-0.4-0.2-0.6
	c-0.1-0.2-0.3-0.4-0.4-0.5C17,210.9,16.8,211.1,16.8,211.5z"/>
<path class="st20" d="M19.9,213.3c0,0.2,0.1,0.4,0.2,0.6c0.1,0.2,0.3,0.4,0.4,0.5c0.4,0.2,0.6,0,0.6-0.4c0-0.2-0.1-0.4-0.2-0.6
	c-0.1-0.2-0.3-0.4-0.4-0.5C20.2,212.7,19.9,212.9,19.9,213.3z"/>
<path class="st20" d="M23.1,215.1c0,0.2,0.1,0.4,0.2,0.6c0.1,0.2,0.3,0.4,0.4,0.5c0.4,0.2,0.6,0,0.6-0.4c0-0.2-0.1-0.4-0.2-0.6
	c-0.1-0.2-0.3-0.4-0.4-0.5C23.4,214.5,23.1,214.7,23.1,215.1z"/>
<path class="st20" d="M26.2,216.9c0,0.2,0.1,0.4,0.2,0.6c0.1,0.2,0.3,0.4,0.4,0.5c0.4,0.2,0.6,0,0.6-0.4c0-0.2-0.1-0.4-0.2-0.6
	c-0.1-0.2-0.3-0.4-0.4-0.5C26.5,216.3,26.2,216.5,26.2,216.9z"/>
<path class="st13" d="M189.3,137.8c-0.7,0.4-0.7,1,0,1.3c0.4,0.2,0.8,0.3,1.2,0.3c0.4,0,0.8-0.1,1.2-0.3c0.1,0,0.3-0.1,0.4-0.3
	c0.1-0.1,0.1-0.3,0.1-0.4c0-0.1,0-0.3-0.1-0.4c-0.1-0.1-0.2-0.2-0.4-0.3c-0.4-0.2-0.8-0.3-1.2-0.3
	C190.1,137.6,189.7,137.7,189.3,137.8z"/>
<g class="st21">
	<path class="st22" d="M141.8,104.7c0-7.1-5-10.1-11.2-6.5h-0.1c-3.3,2.2-6.1,5-8.2,8.4c-2.1,3.4-3.4,7.1-3.9,11.1l-0.5,7.1
		c-0.3,3.9-4,9.2-8.4,11.7c-4.4,2.5-8,0.4-8-4.6v-6.4c0-5.7-4.1-8.1-9.1-5.2c-2.5,1.7-4.7,3.8-6.3,6.4c-1.6,2.6-2.7,5.4-3.1,8.4
		l-0.7,8.3c-0.4,2.8-1.4,5.5-2.9,7.9c-1.5,2.4-3.5,4.4-5.9,6l-0.7,0.4c-4.4,2.5-8.5,0.5-9-4.6l-3.6-35.4c-0.7-7.1-6.4-10-12.5-6.4
		h-0.1c-3.3,2.1-6,5-7.9,8.4c-2,3.4-3.1,7.2-3.3,11.1v74l105.5-60.8V104.7z"/>
	<path class="st23" d="M141.8,143.9v-39.2c0-7.1-5-10.1-11.2-6.5h-0.1c-3.3,2.2-6.1,5-8.2,8.4c-2.1,3.4-3.4,7.1-3.9,11.1l-0.5,7.1
		c-0.3,3.9-4,9.2-8.4,11.7c-4.4,2.5-8,0.4-8-4.6v-6.4c0-5.7-4.1-8.1-9.1-5.2c-2.5,1.7-4.7,3.8-6.3,6.4c-1.6,2.6-2.7,5.4-3.1,8.4
		l-0.7,8.3c-0.4,2.8-1.4,5.5-2.9,7.9c-1.5,2.4-3.5,4.4-5.9,6l-0.7,0.4c-4.4,2.5-8.5,0.5-9-4.6l-3.6-35.4c-0.7-7.1-6.4-10-12.5-6.4
		h-0.1c-3.3,2.1-6,5-7.9,8.4c-2,3.4-3.1,7.2-3.3,11.1v74"/>
</g>
<path class="st24" d="M147.3,140.6c-0.4,2.8-1.4,5.5-2.9,7.9c-1.5,2.4-3.5,4.4-5.9,6c-4.5,2.6-8.8,0.6-9.6-4.5c0,0-0.5-3.3-1.2-7.4
	c-0.6-4.1-4.2-5.6-8-3.4c-3.8,2.2-7.4,8-8.3,13l-1.5,10.4c-0.8,5.1-4.3,10.8-7.9,12.9c-3.6,2.1-7-0.4-7.7-5.4l-2.9-17.7
	c-1.2-7.1-7.2-9.9-13.5-6.3h-0.1c-3.3,2.1-6,5-7.9,8.4c-2,3.4-3.1,7.2-3.3,11.1v56.6L172,161.2v-74c0-7.2-4.5-10.4-10.1-7.1
	c-5.6,3.2-10.6,11.6-11.2,18.7L147.3,140.6z"/>
<path class="st25" d="M172,161.2v-74c0-7.2-4.5-10.4-10.1-7.1c-5.6,3.2-10.6,11.6-11.2,18.7l-3.4,41.8c-0.4,2.8-1.4,5.5-2.9,7.9
	c-1.5,2.4-3.5,4.4-5.9,6c-4.5,2.6-8.8,0.6-9.6-4.5c0,0-0.5-3.3-1.2-7.4c-0.6-4.1-4.2-5.6-8-3.4c-3.8,2.2-7.4,8-8.3,12.9l-1.5,10.4
	c-0.8,5.1-4.3,10.8-7.9,12.9c-3.6,2.1-7-0.4-7.7-5.4l-2.9-17.7c-1.2-7.1-7.2-9.9-13.5-6.3h-0.1c-3.3,2.1-6,5-7.9,8.4
	c-2,3.4-3.1,7.2-3.3,11.1v56.6"/>
</svg>
